{
    "data": [
        {
            "id": "94x38z",
            "url": "https://wallhaven.cc/w/94x38z",
            "short_url": "http://whvn.cc/94x38z",
            "views": 6,
            "favorites": 0,
            "source": "",
            "purity": "sfw",
            "category": "general",
            "dimension_x": 1920,
            "dimension_y": 1080,
            "resolution": "1920x1080",
            "ratio": "1.77",
            "file_size": 1234567,
            "file_type": "image/jpeg",
            "created_at": "2025-09-14 14:01:26",
            "colors": ["#424153", "#000000", "#cccccc"],
            "path": "https://w.wallhaven.cc/full/94/wallhaven-94x38z.jpg",
            "thumbs": {
                "large": "https://th.wallhaven.cc/lg/94/94x38z.jpg",
                "original": "https://th.wallhaven.cc/orig/94/94x38z.jpg",
                "small": "https://th.wallhaven.cc/small/94/94x38z.jpg"
            }
        }
    ],
    "meta": {
        "current_page": 1,
        "last_page": 2,
        "per_page": 24,
        "total": 48,
        "seed": null
    }
}
